Coding Machine Learning Models with R
…
---

## extract the test set predictions themselves

```r
test_predictions <- ames_wfl_fit %>% 
  collect_predictions()
test_predictions #print the results
```

```
## # A tibble: 879 x 4
##    id               .pred  .row Sale_Price
##    <chr>            <dbl> <int>      <dbl>
##  1 train/test split  5.17     3       5.24
##  2 train/test split  5.27     5       5.28
##  3 train/test split  5.27     6       5.29
##  4 train/test split  5.31     9       5.37
##  5 train/test split  5.26    11       5.25
##  6 train/test split  5.24    12       5.27
##  7 train/test split  5.22    14       5.23
##  8 train/test split  5.66    16       5.73
##  9 train/test split  5.15    24       5.17
## 10 train/test split  5.17    25       5.18
## # ... with 869 more rows
```
…
